Binomial and Proportion Responses (ELMR Chapter 3)
…
Abbreviations: CI = Confidence Interval, OR = Odds Ratio

Let’s fit an equivalent (weighted) Bernoulli model. Not surprisingly, we get identical estimate.

obs_wt = c(rbind(orings$damage, 6 - orings$damage))
(orings_long = orings %>%
  slice(rep(1:n(), each = 2)) %>% # replicate each row twice
  mutate(damage = rep(c(1, 0), 23)) %>%
  mutate(obs_wt = obs_wt)) 

# A tibble: 46 × 4
   mission  temp damage obs_wt
   <chr>   <dbl>  <dbl>  <dbl>
 1 1          53      1      5
 2 1          53      0      1
 3 2          57      1      1
 4 2          57      0      5
 5 3          58      1      1
 6 3          58      0      5
 7 4          63      1      1
 8 4          63      0      5
 9 5          66      1      0
10 5          66      0      6
# ℹ 36 more rows
…
